MyProject2/Binaries/Win64/MyProject2.exe	2021-01-20T13:55:31.848Z
Engine/Extras/Redist/en-us/UE4PrereqSetup_x64.exe	2020-11-06T11:55:58.310Z
Engine/Binaries/ThirdParty/Oculus/OVRPlugin/OVRPlugin/Win64/OVRPlugin.dll	2020-11-06T11:44:59.888Z
Engine/Binaries/ThirdParty/DbgHelp/dbghelp.dll	2020-11-06T11:44:38.552Z
Engine/Binaries/ThirdParty/PhysX3/Win64/VS2015/PxFoundationPROFILE_x64.dll	2020-11-06T11:45:35.824Z
Engine/Binaries/ThirdParty/PhysX3/Win64/VS2015/PxPvdSDKPROFILE_x64.dll	2020-11-06T11:45:35.843Z
Engine/Binaries/ThirdParty/PhysX3/Win64/VS2015/PhysX3PROFILE_x64.dll	2020-11-06T11:45:33.912Z
Engine/Binaries/ThirdParty/PhysX3/Win64/VS2015/PhysX3CookingPROFILE_x64.dll	2020-11-06T11:45:33.814Z
Engine/Binaries/ThirdParty/PhysX3/Win64/VS2015/PhysX3CommonPROFILE_x64.dll	2020-11-06T11:45:32.663Z
Engine/Binaries/ThirdParty/PhysX3/Win64/VS2015/APEX_ClothingPROFILE_x64.dll	2020-11-06T11:45:26.475Z
Engine/Binaries/ThirdParty/PhysX3/Win64/VS2015/APEX_LegacyPROFILE_x64.dll	2020-11-06T11:45:28.558Z
Engine/Binaries/ThirdParty/PhysX3/Win64/VS2015/ApexFrameworkPROFILE_x64.dll	2020-11-06T11:45:30.147Z
Engine/Binaries/ThirdParty/PhysX3/Win64/VS2015/NvClothPROFILE_x64.dll	2020-11-06T11:45:30.852Z
Engine/Binaries/ThirdParty/Ogg/Win64/VS2015/libogg_64.dll	2020-11-06T11:44:59.896Z
Engine/Binaries/ThirdParty/Vorbis/Win64/VS2015/libvorbis_64.dll	2020-11-06T11:45:45.211Z
Engine/Binaries/ThirdParty/Vorbis/Win64/VS2015/libvorbisfile_64.dll	2020-11-06T11:45:45.213Z
Engine/Binaries/ThirdParty/NVIDIA/NVaftermath/Win64/GFSDK_Aftermath_Lib.x64.dll	2020-11-06T11:44:59.820Z
Engine/Binaries/ThirdParty/OpenVR/OpenVRv1_5_17/Win64/openvr_api.dll	2020-11-06T11:45:00.629Z
Engine/Binaries/ThirdParty/Windows/WinPixEventRuntime/x64/WinPixEventRuntime.dll	2020-11-06T11:45:49.046Z
Engine/Binaries/ThirdParty/Windows/XAudio2_9/x64/xaudio2_9redist.dll	2020-11-06T11:45:49.353Z
MyProject2.exe	2021-01-20T13:56:12.812Z
